,,
2261913600,-1,
580719932,-1,
191463285,-1,
1440729385,-1,
1140199824,-1,
1440709298,-1,
2286306478,-1,
1440728263,Действие учётной записи приостановлено,
2280244563,Действие учётной записи приостановлено,
2148070025,-1,
1440691956,Действие учётной записи приостановлено,
2281002599,-1,
2283290449,-1,
2322452243,Действие учётной записи приостановлено,
2279171649,-1,
419009436,-1,
324391774,-1,
2227557314,Действие учётной записи приостановлено,
2270833084,-1,
206345919,-1,
444012407,-1,
1440680154,-1,
502649463,-1,
23821740,-1,
2272632179,-1,
2278590635,-1,
2283197629,-1,
1440684144,-1,
2277511858,-1,
520498024,-1,
1440677864,-1,
368557491,-1,
1440649194,-1,
446195319,"0,5",
237840592,-1,
2270651935,Действие учётной записи приостановлено,
704637895,-1,
170417142,-1,
1135294627,-1,
366563931,-1,
2290311923,Действие учётной записи приостановлено,
118057882,-1,
1187511661,-1,
2309282906,Действие учётной записи приостановлено,
330980898,-1,
1440645432,-1,
1440680527,-1,
704407476,-1,
2283612546,Действие учётной записи приостановлено,
547805767,-1,
534434254,-1,
409070936,-1,
1440720955,Действие учётной записи приостановлено,
408402090,-1,
604375995,-1,
2278965532,-1,
388170615,-1,
149944376,-1,
1034825162,-1,
1440708860,Действие учётной записи приостановлено,
1440704852,Действие учётной записи приостановлено,
470891177,-1,
113669465,-1,
1440690054,Действие учётной записи приостановлено,
2323898825,-1,
2295993675,-1,
2283452900,Действие учётной записи приостановлено,
1440714955,Действие учётной записи приостановлено,
2258521048,-1,
2294154399,-1,
326082070,-1,
2198421375,-1,
2227589202,-1,
607998981,-1,
1440684846,-1,
157666234,-1,
1440688759,Действие учётной записи приостановлено,
2295776452,-1,
2282576575,-1,
130283362,-1,
2279505652,Действие учётной записи приостановлено,
2295668723,-1,
1440682506,Действие учётной записи приостановлено,
485022419,-1,
1440706658,-1,
2283729791,-1,
87647262,-1,
124814047,-1,
2295476357,-1,
2227559826,Действие учётной записи приостановлено,
1440727555,-1,
430600869,-1,
1440722143,Действие учётной записи приостановлено,
2331470160,-1,
191357261,-1,
1083443581,-1,
583611758,-1,
58247021,-1,
18723746,-1,
2293901457,-1,
2295181474,-1,
2295430325,-1,
1440690336,-1,
2316198355,Действие учётной записи приостановлено,
2323426817,Действие учётной записи приостановлено,
303924893,-1,
2299419468,Действие учётной записи приостановлено,
1440688752,Действие учётной записи приостановлено,
2305757232,-1,
343911188,-1,
1440702344,Действие учётной записи приостановлено,
1440688232,-1,
293578433,-1,
1187462634,Действие учётной записи приостановлено,
1440684432,Действие учётной записи приостановлено,
2324446852,-1,
2227510363,-1,
866434122,-1,
1533167558,-1,
2294152463,-1,
2323323760,-1,
583532831,-1,
115234025,-1,
1440681877,-1,
1030960561,-1,
1440714122,Действие учётной записи приостановлено,
1208451332,-1,
396666984,-1,
2296874715,-1,
207460010,-1,
2312218232,-1,
1440687906,Действие учётной записи приостановлено,
223485244,-1,
242389524,-1,
2283694613,-1,
2268875373,-1,
2318703298,-1,
283134369,-1,
2227563841,-1,
54006874,-1,
1440685178,Действие учётной записи приостановлено,
2285493915,Действие учётной записи приостановлено,
2318476690,Действие учётной записи приостановлено,
800295608,-1,
2148053657,-1,
1071071173,-1,
2247851735,"К сожалению, такой страницы нет!",
2316856040,-1,
355832631,-1,
2291225571,-1,
2319390008,Действие учётной записи приостановлено,
2286194649,-1,
2283017888,-1,
1481849125,-1,
87489496,-1,
1440639960,-1,
1440722191,-1,
1539284785,-1,
2294102289,-1,
1440676488,Действие учётной записи приостановлено,
1440729547,Действие учётной записи приостановлено,
259679800,-1,
290023449,-1,
181871745,-1,
185318623,-1,
854185093,-1,
2285428469,-1,
2323722347,Действие учётной записи приостановлено,
53401483,-1,
1440680520,Действие учётной записи приостановлено,
2278810943,-1,
2282750725,-1,
541665773,-1,
1440706634,Действие учётной записи приостановлено,
414620920,-1,
2227573898,-1,
1440686575,Действие учётной записи приостановлено,
263550560,-1,
296923337,-1,
522281340,-1,
2286220191,Действие учётной записи приостановлено,
2292301809,Действие учётной записи приостановлено,
344222370,-1,
1168690987,-1,
2300561244,Действие учётной записи приостановлено,
497204162,-1,
2270361461,-1,
2279700699,-1,
82598315,-1,
2278681306,Действие учётной записи приостановлено,
1440718555,Действие учётной записи приостановлено,
1440729037,Действие учётной записи приостановлено,
607097751,-1,
296826120,-1,
454771842,-1,
2282597131,-1,
2266972499,-1,
304009822,-1,
2305877647,-1,
47059164,-1,
1440684120,Действие учётной записи приостановлено,
23596543,-1,
426482919,-1,
409046109,-1,
597732027,-1,
1927505534,-1,
280975175,-1,
225884151,-1,
365504852,-1,
212692158,-1,
2276659870,-1,
2295200813,-1,
399871469,-1,
1440691518,Действие учётной записи приостановлено,
1440683054,Действие учётной записи приостановлено,
2318476629,Действие учётной записи приостановлено,
588317901,-1,
2289264003,-1,
1440688224,Действие учётной записи приостановлено,
396308249,-1,
2287557645,-1,
2300776032,-1,
1440700130,Действие учётной записи приостановлено,
490523841,-1,
159378776,-1,
2300923783,Действие учётной записи приостановлено,
1440690631,Действие учётной записи приостановлено,
2323378924,-1,
2295007893,-1,
2289428345,-1,
188678865,-1,
2294820371,-1,
289346004,-1,
392675432,-1,
1440687517,Действие учётной записи приостановлено,
2295421185,-1,
262671144,-1,
403046751,-1,
2295187661,-1,
2298140592,Действие учётной записи приостановлено,
76128071,-1,
2302517023,Действие учётной записи приостановлено,
2304619656,-1,
1926785400,-1,
2296041453,-1,
2290435149,-1,
2282584218,-1,
2300895865,-1,
2298771955,Действие учётной записи приостановлено,
1057748887,-1,
2294092594,-1,
2227503878,Действие учётной записи приостановлено,
1866953130,-1,
1440668840,-1,
2162125046,-1,
703164796,-1,
301627395,-1,
523412841,-1,
1180156658,-1,
2293057251,-1,
192303457,-1,
2287852001,-1,
375086455,-1,
2320434815,Действие учётной записи приостановлено,
125284503,-1,
101831802,-1,
2271155231,-1,
314796567,-1,
1440638340,Действие учётной записи приостановлено,
308480586,-1,
607448891,"0,5",
548891015,-1,
499886546,-1,
1440664926,Действие учётной записи приостановлено,
2296993361,-1,
1440689605,Действие учётной записи приостановлено,
326092963,-1,
835947643,-1,
300054695,-1,
716334109,-1,
2295454510,-1,
28957558,-1,
1249345100,"0,5",
2302211150,Действие учётной записи приостановлено,
845880344,-1,
2300521854,Действие учётной записи приостановлено,
2295552537,-1,
283818349,-1,
2333987690,-1,
53507658,-1,
2293999043,-1,
183735699,-1,
2227524649,-1,
2295151019,-1,
536220158,-1,
529266235,-1,
288916144,-1,
2227605122,Действие учётной записи приостановлено,
188286113,-1,
28527326,-1,
2323902497,Действие учётной записи приостановлено,
2282663095,-1,
464925079,-1,
295512717,-1,
2302322930,Действие учётной записи приостановлено,
1440701738,Действие учётной записи приостановлено,
2311008272,-1,
2258141629,Действие учётной записи приостановлено,
1440681426,Действие учётной записи приостановлено,
66924840,Действие учётной записи приостановлено,
2321939571,Действие учётной записи приостановлено,
2295586247,-1,
2320756694,-1,
2309254020,-1,
488645797,-1,
166559223,-1,
2295320476,-1,
2299264201,Действие учётной записи приостановлено,
72507169,"0,5",
297725087,-1,
2295573826,-1,
709156596,-1,
1440641250,Действие учётной записи приостановлено,
2284021449,-1,
2320684028,-1,
2304598284,Действие учётной записи приостановлено,
460819458,-1,
281955158,-1,
2324359197,-1,
2295301984,-1,
332306150,-1,
2302177387,-1,
323976122,-1,
106478453,-1,
2227830604,-1,
2279437527,-1,
2300701974,-1,
2302347074,-1,
515665221,-1,
2148289505,-1,
2147538510,-1,
305149275,-1,
2261697168,-1,
2300729257,Действие учётной записи приостановлено,
1550035496,-1,
2309386532,-1,
1440680642,-1,
2285414181,-1,
1440684660,Действие учётной записи приостановлено,
127808194,-1,
1441704517,-1,
2295113691,-1,
2283290412,-1,
2321851065,Действие учётной записи приостановлено,
42197149,-1,
2320607094,-1,
2295303016,-1,
377262641,-1,
2311454508,-1,
2300849148,Действие учётной записи приостановлено,
2302626254,Действие учётной записи приостановлено,
2283313075,-1,
361507408,-1,
494777710,-1,
111947976,-1,
2300726508,Действие учётной записи приостановлено,
2300166985,Действие учётной записи приостановлено,
1440679482,Действие учётной записи приостановлено,
1470562285,Действие учётной записи приостановлено,
2300246011,Действие учётной записи приостановлено,
2286669417,Действие учётной записи приостановлено,
168448948,-1,
43085844,-1,
453849817,-1,
2295228580,-1,
2283919341,-1,
132865504,-1,
2290525279,Действие учётной записи приостановлено,
437756480,-1,
19460695,-1,
1440648816,-1,
1440720787,Действие учётной записи приостановлено,
2227511964,Действие учётной записи приостановлено,
2291954026,-1,
2324598527,Действие учётной записи приостановлено,
2309232919,Действие учётной записи приостановлено,
2322785848,-1,
2282789335,-1,
2324260647,Действие учётной записи приостановлено,
2309384923,Действие учётной записи приостановлено,
2302622582,-1,
2293953203,Действие учётной записи приостановлено,
2261834818,-1,
2289373403,Действие учётной записи приостановлено,
2285267459,Действие учётной записи приостановлено,
2270735487,-1,
2298865393,-1,
174992195,-1,
2279291141,-1,
504287058,-1,
2227632690,-1,
714595407,-1,
2296035725,-1,
717261669,-1,
2282675138,-1,
2217859426,-1,
2324238945,Действие учётной записи приостановлено,
1269040184,-1,
2294357308,-1,
2288286796,-1,
2285687458,-1,
2286191758,-1,
2291811255,-1,
2281746591,-1,
2290482686,Действие учётной записи приостановлено,
285196876,-1,
2295984076,-1,
2282786724,-1,
102723143,-1,
2283299624,-1,
2282669522,-1,
2300566472,-1,
2302520953,-1,
2283345732,-1,
611532479,-1,
489216673,-1,
2282613751,-1,
2302547786,-1,
2227602590,-1,
439218616,-1,
365874855,-1,
2227485558,Действие учётной записи приостановлено,
2268889626,-1,
2302298156,-1,
2304684937,-1,
2295719975,-1,
2302613166,-1,
2298737077,-1,
2283653442,-1,
256695743,-1,
1008653538,-1,
2323320723,-1,
78760914,-1,
2300509410,Действие учётной записи приостановлено,
498707613,"0,5",
2302234909,Действие учётной записи приостановлено,
2282577414,-1,
2323358525,Действие учётной записи приостановлено,
2323432793,-1,
2282677122,-1,
2304632240,Действие учётной записи приостановлено,
2283358806,-1,
488411648,-1,
338893356,1,
301698464,-1,
2300612268,Действие учётной записи приостановлено,
2288372891,-1,
2302597627,Действие учётной записи приостановлено,
2322157737,-1,
1512665606,1,?
2282827237,-1,
610372079,-1,
717525490,-1,
2271260921,-1,
2325224357,Действие учётной записи приостановлено,
2180547824,-1,
2305806103,-1,
2283186846,-1,
2290368023,-1,
537301586,-1,
924854335,-1,
574780529,-1,
314859463,-1,
2316300042,-1,
2283816324,-1,
509074272,-1,
460015810,1,
2304747462,Действие учётной записи приостановлено,
158503850,-1,
2282670786,-1,
2302383973,-1,
2302167762,-1,
2322781529,-1,
2278719167,-1,
2300520320,Действие учётной записи приостановлено,
2300578388,-1,
104116582,-1,
1567697246,1,
2305938066,-1,
2298840296,Действие учётной записи приостановлено,
703596013,1,
2293930612,-1,
2302266025,Действие учётной записи приостановлено,
1208334187,-1,
2323397987,Действие учётной записи приостановлено,
2289441489,Действие учётной записи приостановлено,
222399612,-1,
2283353390,-1,
2286689938,-1,
2277077175,-1,
714021459,-1,
2305824050,-1,
2300800332,Действие учётной записи приостановлено,
2318148726,Действие учётной записи приостановлено,
2302518236,-1,
2295748132,-1,
2305684572,-1,
2283034002,-1,
2305785168,-1,
1094545158,-1,
2321606283,-1,
2270014766,-1,
2282622188,-1,
2302459081,-1,
2258407460,Действие учётной записи приостановлено,
2304671282,Действие учётной записи приостановлено,
2295472955,-1,
705142041,-1,
80301820,-1,
2302371030,-1,
2276880400,-1,
2283031069,-1,
1440678769,-1,
2242219821,-1,
2293337092,-1,
2261969616,-1,
457693229,-1,
2295497981,-1,
2324172976,-1,
2285372812,-1,
2269707451,-1,
2298910986,Действие учётной записи приостановлено,
203162191,-1,
207416621,-1,
2302444698,Действие учётной записи приостановлено,
2317799599,-1,
2304762679,Действие учётной записи приостановлено,
19466287,-1,
256959534,1,
2283908493,-1,
601234256,-1,
2311480274,-1,
2321402523,-1,
190716350,-1,
2272535697,-1,
2324266547,Действие учётной записи приостановлено,
260656734,-1,
235174406,-1,
2321012228,Действие учётной записи приостановлено,
2291764858,Действие учётной записи приостановлено,
2273538376,-1,
292166678,-1,
2283206304,Действие учётной записи приостановлено,
2274359535,-1,
1047558914,-1,
2320615067,Действие учётной записи приостановлено,
1392539203,"0,5",
117066339,-1,
717751492,-1,
460198842,-1,
2321740024,-1,
2322154863,-1,
2282647135,Действие учётной записи приостановлено,
2283431814,-1,
2302296895,Действие учётной записи приостановлено,
550922088,-1,
187226110,-1,
2316992634,Действие учётной записи приостановлено,
2302162766,Действие учётной записи приостановлено,
2227586497,-1,
2283663618,Действие учётной записи приостановлено,
2316668317,Действие учётной записи приостановлено,
2227487948,-1,
2283813212,Действие учётной записи приостановлено,
438349743,-1,
2302539860,-1,
230492312,-1,
486383038,-1,
2324348097,Действие учётной записи приостановлено,
2316223790,-1,
2323820063,-1,
2288231338,-1,
2282799036,-1,
2321255163,Действие учётной записи приостановлено,
2300402113,Действие учётной записи приостановлено,
2288045074,Действие учётной записи приостановлено,
2283020683,-1,
431329756,"0,5",
2298775423,Действие учётной записи приостановлено,
2283226322,-1,
2329444329,-1,
2279694845,-1,
380272593,-1,
1440716846,Действие учётной записи приостановлено,
1924222867,-1,
196262602,-1,
2334010870,"0,5",
2295326337,-1,
606308163,-1,
269055454,-1,
2261877866,Действие учётной записи приостановлено,
2295591359,-1,
1440647220,Действие учётной записи приостановлено,
2288776217,-1,
2295681221,-1,
252105737,Твиты @kislicin защищены.,
2283331615,-1,
2300935286,-1,
2283336938,-1,
2295309231,Действие учётной записи приостановлено,
2284433038,-1,
2316654635,-1,
392013775,"0,5",
2283556891,-1,
2288203305,-1,
2284530185,-1,
45927367,-1,
710190768,-1,
2317740817,Действие учётной записи приостановлено,
2302152018,Действие учётной записи приостановлено,
2283334915,-1,
2283381044,-1,
2227624028,-1,
2305779319,-1,
2323936385,Действие учётной записи приостановлено,
2298898290,-1,
282627386,1,
2283514448,-1,
2300809932,Действие учётной записи приостановлено,
257916223,-1,
2309330744,Действие учётной записи приостановлено,
379561428,-1,
2283770736,-1,
424996913,-1,
2298738434,Действие учётной записи приостановлено,
2300546227,Действие учётной записи приостановлено,
2283476834,-1,
2317350176,-1,
2270273908,-1,
435656367,-1,
2292341853,-1,
2288229670,-1,
2286249047,-1,
2269657459,-1,
2288692323,-1,
2282671627,-1,
2279638341,-1,
2312157488,-1,
2274692855,-1,
2305788462,Действие учётной записи приостановлено,
222645801,-1,
2280965669,-1,
496785592,-1,
2289427131,-1,
354834372,-1,
2324817147,Действие учётной записи приостановлено,
2300682446,-1,
2321647557,Действие учётной записи приостановлено,
2282601685,-1,
2277871789,Действие учётной записи приостановлено,
2323430201,Действие учётной записи приостановлено,
2305831224,-1,
2322492003,-1,
438915793,-1,
2283608820,-1,
2302421592,-1,
2300665531,-1,
2302497660,Действие учётной записи приостановлено,
2283155101,Действие учётной записи приостановлено,
2283780499,Действие учётной записи приостановлено,
2283719742,-1,
2227641288,-1,
2300514564,Действие учётной записи приостановлено,
2282779255,-1,
2305924045,-1,
2287451771,-1,
2298900637,Действие учётной записи приостановлено,
2334897731,-1,
387540108,-1,
2305924796,-1,
2302333100,Действие учётной записи приостановлено,
2279865358,-1,
2316896166,Действие учётной записи приостановлено,
2316375978,Действие учётной записи приостановлено,
2295950997,-1,
2295217396,-1,
2323367349,Действие учётной записи приостановлено,
2282745625,-1,
2227482769,Действие учётной записи приостановлено,
2290284089,Действие учётной записи приостановлено,
2305703239,-1,
80833625,-1,
617952846,-1,
2283730008,-1,
442120683,-1,
79972912,-1,
2309334446,-1,
2321521108,-1,
630482900,1,
2305874820,-1,
2323951521,Действие учётной записи приостановлено,
2321312669,Действие учётной записи приостановлено,
74671878,-1,
2259987864,-1,
2298759644,-1,
2302301246,-1,
982351921,-1,
42586595,-1,
259251575,-1,
248322218,-1,
1171479980,-1,
302544299,-1,
476539414,-1,
2311322886,Действие учётной записи приостановлено,
2300924664,Действие учётной записи приостановлено,
2309275045,-1,
2321674827,Действие учётной записи приостановлено,
2322291911,-1,
2293136975,Действие учётной записи приостановлено,
2321671089,-1,
2227632445,Действие учётной записи приостановлено,
2271049003,-1,
2289719883,Действие учётной записи приостановлено,
2291192957,-1,
1247751362,-1,
2302454479,-1,
2300530831,Действие учётной записи приостановлено,
2317876844,-1,
2276934575,-1,
2283254228,-1,
2290364931,-1,
298831131,"0,5",
2295100803,"К сожалению, такой страницы нет!",
2295756334,-1,
153059012,-1,
157957903,-1,
750831024,-1,
430823047,-1,
489425515,-1,
842646360,-1,
434885652,-1,
293432200,-1,
498049660,-1,
107293372,-1,
353479438,-1,
2285645837,"0,5",
1023827888,-1,
2162116771,-1,
1208313782,-1,
513159220,-1,
407637534,-1,
1634932705,Действие учётной записи приостановлено,
2293927391,-1,
1663528580,Действие учётной записи приостановлено,
2270770892,-1,
1662991237,Действие учётной записи приостановлено,
222921297,-1,
378049222,-1,
2293930041,-1,
2271114299,-1,
2292249843,-1,
2303375388,-1,
1660010724,-1,
1863615666,-1,
313375809,"0,5",
1637399599,-1,
302411176,-1,
1657647565,-1,
2258522420,Действие учётной записи приостановлено,
29730138,1,
1650828973,Действие учётной записи приостановлено,
945537156,-1,
1249485890,-1,
2289532291,"0,5",
1899441116,-1,
546061788,-1,
1643260933,Действие учётной записи приостановлено,
53380804,-1,
1635847488,-1,
1655401729,-1,
1657809086,-1,
1659762841,Действие учётной записи приостановлено,
1627055468,-1,
1634513882,-1,
1659855702,-1,
1648209998,-1,
1657561423,Действие учётной записи приостановлено,
1663953007,-1,
1658274104,-1,
1627225436,Действие учётной записи приостановлено,
1654936080,-1,
1640540058,-1,
1647850718,-1,
2191507096,-1,
1653998826,-1,
1642538366,-1,
1656073872,-1,
1664271866,Действие учётной записи приостановлено,
1642320973,-1,
404730937,-1,
1663002955,Действие учётной записи приостановлено,
277106384,-1,
1628660760,-1,
1656753110,-1,
1640084468,-1,
1657163000,-1,
1640096036,Действие учётной записи приостановлено,
2258185286,-1,
165091476,1,
1008257582,-1,
1959382854,-1,
2270578126,-1,
513450122,-1,
2279344536,-1,
444434681,-1,
196665905,-1,
2302321315,Действие учётной записи приостановлено,
2316556526,Действие учётной записи приостановлено,
445774037,-1,
273410512,-1,
257054904,-1,
305126320,-1,
117463844,-1,
113726340,-1,
117591154,-1,
147484448,-1,
138750164,-1,
151584526,-1,
192803506,-1,
190261800,-1,
192802195,-1,
445388632,-1,
2323928111,Действие учётной записи приостановлено,
2282818976,-1,
2298803090,-1,
2305981244,-1,
2302424334,-1,
110825695,-1,
303945075,-1,
2283203658,-1,
2298781686,Действие учётной записи приостановлено,
103530294,-1,
2270412846,-1,
113239606,-1,
1627510206,Действие учётной записи приостановлено,
28859692,1,
112112836,-1,
2294623757,Действие учётной записи приостановлено,
466547516,1,
952997696,-1,
280888976,-1,
289941018,-1,
2289190007,Действие учётной записи приостановлено,
2293375703,-1,
2295684964,-1,
1272996216,-1,
428201748,1,
188345977,1,
757554350,-1,
192964860,-1,
2296219931,-1,
1635906012,-1,
2294014871,-1,
2294222704,-1,
931430582,-1,
419472210,-1,
996663564,-1,
1653155336,Действие учётной записи приостановлено,
435672146,-1,
293721567,-1,
1273089391,-1,
1852438003,-1,
765710904,1,
396677922,-1,
263683608,1,
2185991336,-1,
2242210596,-1,
253122900,1,?
1405191426,-1,
338206358,1,
476709304,1,
508741811,-1,
493258936,"0,5",
1299561116,1,
620765168,-1,
237054748,-1,
458714104,-1,
489218456,-1,
730930202,-1,
582024474,-1,
448623371,-1,
371851968,-1,
525713386,-1,
734692874,-1,
584104676,-1,
1585175551,-1,
538887998,-1,
358777705,-1,
373476487,-1,
311928945,-1,
261164438,1,
720796540,-1,
445580161,Действие учётной записи приостановлено,
469078943,-1,
1198030182,-1,
113364557,-1,
374014745,1,
98943952,-1,
1481431100,-1,
1439626734,-1,
729277982,-1,
709461804,-1,
1355614783,-1,
632745878,-1,
209470300,-1,
620577112,-1,
495541523,-1,
602874496,-1,
1488501290,"К сожалению, такой страницы нет!",
2191942938,-1,
444027759,-1,
719659662,-1,
92428446,-1,
58592361,-1,
593800628,-1,
274968716,1,?
636260680,-1,
116509795,-1,
69335141,-1,
1116016718,-1,
634908693,-1,
260402180,1,
706784851,-1,
861776292,-1,
202626960,-1,
110152180,-1,
442144633,-1,
362294869,-1,
307547398,-1,
1041501552,-1,
1958712235,-1,
250656579,1,
2232730423,1,
1282866181,"0,5",
303922221,-1,
2222926460,-1,
2188290830,-1,
341462362,-1,
2294174103,1,
141587541,1,
1354966172,-1,
756887610,"К сожалению, такой страницы нет!",
122081741,"К сожалению, такой страницы нет!",
1259794710,-1,
1260058464,-1,
1259847133,-1,
491107952,-1,
1260072067,-1,
881381089,-1,
1260009600,-1,
1273002470,-1,
1273058784,-1,
853565504,-1,
1354988592,-1,
1252246368,-1,
1249462585,-1,
1734450930,-1,
308644244,-1,
276480086,-1,
397569462,1,
2244126762,-1,
1273060375,-1,
1346153618,"0,5",
1562870244,-1,
2287880492,-1,
1097469378,-1,
1008583566,-1,
1350133687,-1,
1350025752,Действие учётной записи приостановлено,
1350066716,-1,
1350071598,-1,
1350252792,Действие учётной записи приостановлено,
1648077524,-1,
1647360926,-1,
1687437457,-1,
1273027159,-1,
2187913934,-1,
1349570856,-1,
1350041995,Действие учётной записи приостановлено,
2208480675,-1,
2196951267,"0,5",
1687539714,-1,
1601251351,-1,
288128466,1,
103966752,-1,
1072211492,-1,
1026901831,-1,
1033361527,-1,
1089046333,-1,
107379847,-1,
2190274869,-1,
1943359632,-1,
1121437628,-1,
1183153548,-1,
1597259228,-1,
308269608,-1,
1599850466,-1,
1596920370,-1,
1600155428,-1,
312580368,-1,
351074185,-1,
1599770430,-1,
1600022875,-1,
1597193779,-1,
1601170026,-1,
492882061,-1,
462249240,-1,
1596394326,-1,
345492747,-1,
466161842,-1,
1930475808,-1,
1597829264,-1,
1643736192,Действие учётной записи приостановлено,
1596395575,-1,
1601246180,-1,
1597973689,-1,
1600806751,-1,
1601326705,-1,
1596299353,-1,
1601518687,-1,
1600519442,-1,
1601310499,-1,
1599500497,-1,
1596759462,-1,
1601570552,-1,
1597251078,-1,
1601539003,-1,
1600047278,-1,
1601723718,-1,
1648159549,-1,
1597139310,-1,
1622361164,-1,
1653957384,-1,
440248911,-1,
385441001,-1,
1596617678,-1,
1597210034,-1,
1699569096,"К сожалению, такой страницы нет!",
1652830759,-1,
1596182012,-1,
1599727034,-1,
1597035146,-1,
1597106875,-1,
1596620652,-1,
1596878569,-1,
1596250196,-1,
1601001920,-1,
1599915667,-1,
1596225901,-1,
1597072663,-1,
1651511275,-1,
2177143803,"0,5",
1596097956,-1,
1601729898,-1,
1596632502,-1,
1599476600,-1,
1599756986,-1,
1595668812,-1,
1599838080,-1,
1595006514,-1,
1600782884,-1,
1195931023,-1,
1599876241,-1,
1599805616,-1,
1596600650,-1,
1632566180,Действие учётной записи приостановлено,
1387186692,1,
1594831452,-1,
1597257217,-1,
1657121989,-1,
1599997686,-1,
601736341,1,
1599364050,-1,
1929468349,-1,
1635499776,Действие учётной записи приостановлено,
1594895827,-1,
1480836764,-1,
1455307748,-1,
2193668066,-1,
1599552421,-1,
1601644315,-1,
1599678776,-1,
1378811384,-1,
1651985918,-1,
1657810867,-1,
1636406467,Действие учётной записи приостановлено,
1660432213,Действие учётной записи приостановлено,
1649670499,Действие учётной записи приостановлено,
1650182053,-1,
1602026922,-1,
1594850455,-1,
1599964586,-1,
1350366282,-1,
67681364,1,
1596755012,-1,
1625922216,-1,
1659391226,-1,
1601847456,-1,
1601770092,-1,
1596749424,-1,
1594806438,-1,
1594941554,-1,
1582594453,-1,
1599668984,-1,
1596883620,-1,
1599274992,-1,
1654680841,-1,
1596643429,-1,
1653008084,-1,
477558567,-1,
1596909139,-1,
1595936851,-1,
1600746978,-1,
1655798486,-1,
1597199341,-1,
1599474565,-1,
1623015673,-1,
1654976234,-1,
1595109415,-1,
1650742309,-1,
1652759275,-1,
1659630512,Действие учётной записи приостановлено,
1654634851,Действие учётной записи приостановлено,
1663713685,-1,
1652255808,-1,
1660153722,-1,
1655814852,Действие учётной записи приостановлено,
1659711324,Действие учётной записи приостановлено,
1600848031,-1,
1596321438,-1,
1597075686,-1,
265361969,-1,
1370024317,Действие учётной записи приостановлено,
1596588992,-1,
1664289666,-1,
1594816286,-1,
1597788757,-1,
1600885615,-1,
1372916954,-1,
1663392150,Действие учётной записи приостановлено,
534221286,1,
978982878,-1,
1600704146,-1,
1532167861,Действие учётной записи приостановлено,
1599770359,-1,
1646022667,-1,
865776919,-1,
1668380046,Действие учётной записи приостановлено,
1627905174,-1,
1600557451,-1,
1597111110,-1,
1655090438,Действие учётной записи приостановлено,
1654796455,-1,
1596368988,-1,
1107266964,-1,
1599375540,-1,
1597308494,-1,
1707936284,-1,
