,,
,,
1349788086,Действие учётной записи приостановлено,
1349788542,-1,
1349794064,Действие учётной записи приостановлено,
1349799912,Действие учётной записи приостановлено,
1349800668,Действие учётной записи приостановлено,
1349802523,-1,
1349802721,-1,
1349806094,Действие учётной записи приостановлено,
1349826781,Действие учётной записи приостановлено,
1349827135,-1,
1349850523,Действие учётной записи приостановлено,
1349885197,Действие учётной записи приостановлено,
1349896993,Действие учётной записи приостановлено,
1349962718,Действие учётной записи приостановлено,
1350129696,-1,
1350152772,-1,
1350157135,-1,
1350159494,Действие учётной записи приостановлено,
1350159566,Действие учётной записи приостановлено,
1350164220,-1,
1350168019,Действие учётной записи приостановлено,
1350182228,-1,
1350183211,-1,
1350190753,-1,
1350190969,-1,
1350194324,-1,
1350242808,Действие учётной записи приостановлено,
1350252978,-1,
1350260534,-1,
1350403002,"0,5",
135083597,1,
1351157358,"0,5",
1351822530,Действие учётной записи приостановлено,
1351996472,Действие учётной записи приостановлено,
1352264689,действие учётной записи приостановлено,
1352516088,Действие учётной записи приостановлено,
1352616392,Действие учётной записи приостановлено,
1352639174,Действие учётной записи приостановлено,
1352744995,Действие учётной записи приостановлено,
1352756282,Действие учётной записи приостановлено,
1352766546,Действие учётной записи приостановлено,
1354408837,Действие учётной записи приостановлено,
1354487348,Действие учётной записи приостановлено,
1354676574,-1,
1354720160,Действие учётной записи приостановлено,
1354853227,-1,
1354973844,1,
1355012552,-1,
1355114670,-1,
1357723284,-1,
1358907607,-1,
1359327144,-1,
1359564577,Действие учётной записи приостановлено,
1360923788,Действие учётной записи приостановлено,
1361524044,-1,
1361748140,Действие учётной записи приостановлено,
1361759312,Действие учётной записи приостановлено,
1362468553,"0,5",
1362781544,"0,5",
1363101812,1,
1363471998,"0,5",
1363788691,-1,
136415351,"0,5",
1364566850,-1,
1367019434,-1,
1367075311,-1,
1367159101,-1,
1367181032,-1,
1367214769,-1,
1367324516,-1,
136764308,1,
1367764111,"0,5",
136776982,"0,5",
137050177,"0,5",
137227643,"К сожалению, такой страницы нет!",
1372795116,"0,5",
1374106939,1,
1374391734,-1,
1376235500,"К сожалению, такой страницы нет!",
1376446766,"0,5",
137676101,-1,
1376791105,-1,
137742387,"0,5",
1379877728,-1,
138176923,-1,
1382928650,-1,
1388376684,Действие учётной записи приостановлено,
1391240250,-1,
1391568308,-1,
1392531906,-1,
1394194814,"0,5",
1394553536,"0,5",
1399061360,"0,5",
1399264399,-1,
139974558,1,
1402819380,1,
1403458975,-1,
1404168120,Действие учётной записи приостановлено,
1404597235,"0,5",
1404617136,-1,
1404831385,-1,
140534551,1,
1405787054,-1,
1406855456,"0,5",
1408185738,"0,5",
14094328,1,
140962745,"0,5",
1415292398,-1,
141683283,1,
1419953191,-1,
142204624,"0,5",
1431413790,Действие учётной записи приостановлено,
1208605051,-1,
725352864,-1,
1432259286,Действие учётной записи приостановлено,
1432801632,"0,5",
1433340379,Действие учётной записи приостановлено,
1433540185,Действие учётной записи приостановлено,
1435327298,Действие учётной записи приостановлено,
1435364479,Действие учётной записи приостановлено,
1436399983,Действие учётной записи приостановлено,
1436806680,Действие учётной записи приостановлено,
14393929,"0,5",
1439690760,Действие учётной записи приостановлено,
1439701405,-1,
1440650334,Действие учётной записи приостановлено,
1440688320,Действие учётной записи приостановлено,
1440689400,Действие учётной записи приостановлено,
1440689695,Действие учётной записи приостановлено,
1440690954,-1,
1440722671,-1,
1440729355,-1,
1440732937,Действие учётной записи приостановлено,
1447584462,-1,
1448476962,-1,
1448731586,-1,
1448968429,-1,
1450759465,-1,
1450859623,-1,
1466710188,-1,
1469417059,-1,
147487941,-1,
1495474812,"0,5",
1498796364,"0,5",
1530144115,-1,
1530684380,-1,
1535879820,1,
1539219702,-1,
1539670274,-1,
1549449600,1,
1549529820,-1,
1552769618,-1,
1556878087,-1,
1556934290,-1,
1558553438,-1,
1559657485,-1,
1564051214,-1,
1567533511,-1,
1569159068,-1,
1569889812,-1,
1573455848,-1,
1575559230,-1,
1575595254,-1,
2262069427,-1,
1580025612,-1,
1582308709,-1,
1584977377,-1,
1591104043,-1,
1593891174,"К сожалению, такой страницы нет!",
1594722750,-1,
1594734486,-1,
1594758296,-1,
1594772840,-1,
1594776414,-1,
1594782228,-1,
1594787491,-1,
1594791530,-1,
1594801004,-1,
1594805833,-1,
1594811658,-1,
1594826088,-1,
1594840836,-1,
1594841227,-1,
1594864922,-1,
1594865598,-1,
1594893480,-1,
1594903033,-1,
1594924681,-1,
1594935600,-1,
1594947439,-1,
1594958714,-1,
1594978926,-1,
1594984590,-1,
1594991821,-1,
1595000244,-1,
1595003671,-1,
1595012695,-1,
1595038393,Действие учётной записи приостановлено,
1595067734,-1,
1595103709,-1,
1595719614,-1,
1595975148,-1,
1595980550,-1,
1595983674,-1,
1595989772,-1,
1595992591,-1,
1595996858,-1,
1596016590,-1,
1596023390,-1,
1596057732,-1,
1596078487,-1,
1596115836,-1,
1596126661,-1,
1596159552,-1,
1596171319,-1,
1596179239,-1,
1596187237,-1,
1596194185,-1,
1596200186,-1,
1596214087,-1,
1596216926,-1,
1596236580,-1,
1596258984,-1,
1596297252,-1,
1596322663,-1,
1596350892,-1,
1596372241,-1,
1596399650,-1,
1596405721,-1,
1596406190,-1,
1596429049,-1,
1596675415,-1,
1596720036,-1,
1596735283,-1,
1596814508,-1,
1596839958,-1,
1596871932,-1,
1596907860,-1,
1596932323,-1,
1596933294,-1,
1597009922,-1,
1597013227,-1,
1597029954,-1,
1597102188,-1,
1597117597,-1,
1597145155,-1,
1597146254,-1,
1597176048,-1,
1597207393,-1,
1597218661,-1,
1597253786,-1,
1597310071,-1,
1597338721,-1,
1597919480,-1,
1599460975,-1,
1599490610,-1,
1599522656,-1,
1599580519,-1,
1599584965,-1,
1599601658,-1,
1599708402,-1,
1599740485,-1,
1599780470,-1,
1599825440,-1,
1599843768,-1,
1599854281,-1,
1599866299,-1,
1599874530,-1,
1599895518,-1,
1599898513,-1,
1599908587,-1,
1599958286,-1,
1599971576,-1,
1599996764,-1,
1600011144,-1,
1600042254,-1,
1600083182,-1,
1600105566,-1,
1600109894,-1,
1600132986,-1,
1600160670,-1,
1600161823,-1,
1600271766,-1,
1600524475,-1,
1600553358,-1,
1600559952,-1,
1600569468,-1,
1600570346,-1,
1600593258,-1,
1600613022,-1,
1600635764,-1,
1600687238,-1,
1600688618,-1,
1600715136,-1,
1600718550,-1,
1600730551,-1,
1600749572,-1,
1600804124,-1,
1601010211,-1,
1601082133,-1,
1601189874,-1,
1601312796,-1,
1601404292,-1,
1601438900,-1,
1601494116,-1,
1601534444,-1,
1601537268,-1,
1601638405,-1,
1601648887,-1,
1601676421,-1,
1601737094,-1,
1601844067,-1,
1601851836,-1,
1602757116,-1,
1602770197,-1,
1602918199,-1,
1603268407,"0,5",
1606516598,"0,5",
1617801216,-1,
1619655494,"0,5",
1620235100,"0,5",
1622657298,Действие учётной записи приостановлено,
1623737600,"0,5",
1625138526,Действие учётной записи приостановлено,
1625271409,-1,
1626218312,Действие учётной записи приостановлено,
1626399823,-1,
1627390111,Действие учётной записи приостановлено,
1627731668,-1,
1627949041,-1,
1632674772,-1,
1633775744,-1,
1634409110,-1,
1634507671,-1,
1635193770,Действие учётной записи приостановлено,
1635267134,-1,
1636191570,-1,
1636216969,-1,
1637149981,-1,
163790286,"0,5",
1638633475,-1,
1639382688,-1,
1640410009,Действие учётной записи приостановлено,
1640430764,-1,
1640433559,Действие учётной записи приостановлено,
1640860200,-1,
1641186019,-1,
475651140,-1,
1191343322,-1,
210754509,-1,
2295942489,-1,
2281919571,-1,
2300567120,Действие учётной записи приостановлено,
422566074,-1,
2301605634,Действие учётной записи приостановлено,
2301253878,Действие учётной записи приостановлено,
2296181493,-1,
1642409202,-1,
1642811570,-1,
1643722892,1,
1645004701,"0,5",
1645832238,-1,
1646287339,Действие учётной записи приостановлено,
1647205699,-1,
1647464886,-1,
1647548191,Действие учётной записи приостановлено,
1647558360,-1,
1648090616,-1,
1648260205,Действие учётной записи приостановлено,
1648263571,Действие учётной записи приостановлено,
1648370024,-1,
1649005676,-1,
1649407447,-1,
1650106172,-1,
1650274520,Действие учётной записи приостановлено,
1650678564,Действие учётной записи приостановлено,
1650860514,Действие учётной записи приостановлено,
1651144994,-1,
1651161763,-1,
1651210621,Действие учётной записи приостановлено,
1651272464,Действие учётной записи приостановлено,
1651765868,-1,
1651881200,-1,
1651891346,-1,
1652082271,-1,
1653151866,-1,
1654228136,Действие учётной записи приостановлено,
1654346000,Действие учётной записи приостановлено,
1654862167,-1,
1654942304,-1,
1654987430,-1,
1654993771,-1,
1655229254,-1,
1655240654,-1,
1655962214,-1,
1656414734,Действие учётной записи приостановлено,
1657421192,-1,
1657635144,Действие учётной записи приостановлено,
1657688504,-1,
1658309749,-1,
1658784211,-1,
1658818794,-1,
1658926939,-1,
1659268886,Действие учётной записи приостановлено,
1659496800,-1,
1659784351,-1,
1660065547,-1,
1660217587,-1,
1660371524,-1,
1660455307,-1,
1660760311,-1,
1660824475,-1,
1662720577,-1,
1662906282,Действие учётной записи приостановлено,
1663111699,-1,
1663467913,Действие учётной записи приостановлено,
1663487750,Действие учётной записи приостановлено,
1664454842,Действие учётной записи приостановлено,
1664616152,-1,
1664636004,Действие учётной записи приостановлено,
166986665,-1,
1674023016,-1,
1677461527,-1,
1689046939,-1,
1689074414,-1,
1690424616,-1,
1690656349,-1,
1690939758,-1,
1692236600,-1,
1692577586,-1,
1694742474,1,
169974959,-1,
1705201495,-1,
1706288484,-1,
1706783168,-1,
1707588440,-1,
1708340371,-1,
1708773666,-1,
1708998517,-1,
1710642014,-1,
1710801036,-1,
1710837097,-1,
1710851838,"0,5",
1712170502,-1,
1712209874,-1,
1713679513,-1,
1720117633,-1,
17206718,"0,5",
1721462449,-1,
174160174,"0,5",
175370172,1,
176791483,"0,5",
179508975,"0,5",
179542046,-1,
180766044,-1,
181623944,1,
1866799248,-1,
186926368,"0,5",
1875757610,-1,
18807761,-1,
1889400188,-1,
1391269518,-1,
1649047460,-1,
2300522910,Действие учётной записи приостановлено,
190657209,-1,
1906778384,-1,
1910304932,"0,5",
1913623705,-1,
1914022760,-1,
1914040256,-1,
1914207420,-1,
1925423310,-1,
192585038,такой страници нет,
1926182281,-1,
1926491551,-1,
1927725350,-1,
1927960908,-1,
1928553180,-1,
1928719628,"0,5",
1929003325,-1,
1929162931,-1,
1929295206,-1,
1929391586,-1,
1929690272,-1,
1930443510,-1,
1932836556,-1,
1933685432,-1,
1934775073,-1,
1936581614,-1,
1937132460,-1,
1939654368,-1,
1940603786,-1,
1941015182,-1,
1941221923,-1,
1942092876,-1,
19421222,1,
1942513644,-1,
1942520065,-1,
1946380254,-1,
1946882064,"0,5",
1947066577,"0,5",
1948089007,-1,
1948648128,-1,
1954340388,1,
1959177212,-1,
1961438186,-1,
1962367128,-1,
1964202624,-1,
1964437369,"0,5",
19644844,-1,
1967844416,-1,
1968067076,-1,
1969991738,1,
1973431711,-1,
1977383360,-1,
198487222,-1,
198527484,-1,
200897426,-1,
201232394,-1,
208509495,такой страници нет,
21126056,-1,
213388824,"0,5",
214063023,"0,5",
214454652,"0,5",
2149318616,-1,
2151036625,-1,
2151360013,-1,
2158809514,-1,
2160718054,-1,
2166539678,-1,
2166995700,-1,
216733501,-1,
217345875,-1,
1860620101,-1,
2212343894,-1,
448134566,-1,
562479884,-1,
2295473927,-1,
2274866925,-1,
2295674487,-1,
2293240955,-1,
22051008,-1,
2278746838,-1,
2295702789,-1,
2295669879,-1,
2289441861,-1,
2279476659,-1,
234740874,-1,
284371229,-1,
461292237,-1,
2293982625,-1,
2272900000,-1,
2276872372,-1,
2176600957,1,
2182548375,Действие учётной записи приостановлено,
2182908483,"0,5",
2182962561,такой страници нет,
2184816120,-1,
2186947941,Действие учётной записи приостановлено,
2187117370,-1,
2187582329,Действие учётной записи приостановлено,
2189161725,Действие учётной записи приостановлено,
2191049205,Действие учётной записи приостановлено,
2191221881,Действие учётной записи приостановлено,
2191288666,-1,
2191447906,Действие учётной записи приостановлено,
2191510893,-1,
2191752855,"0,5",
2191850273,Действие учётной записи приостановлено,
2192352621,Действие учётной записи приостановлено,
2192587935,-1,
2192798685,1,
2196526777,-1,
2204997318,"0,5",
220990959,-1,
221865211,-1,
2220565536,такой страници нет,
2226359701,-1,
2234966443,-1,
2235890762,-1,
2237584520,-1,
2244613132,-1,
2249532252,-1,
225083679,-1,
2261217378,-1,
228201254,-1,
231143612,1,
233485930,-1,
241296429,1,
242458303,-1,
242466794,-1,
244988924,-1,
245955744,-1,
24725480,1,?
248010710,Твиты @AKonorova защищены.,
249146001,1,
250839349,"0,5",
251140637,-1,
251206377,"0,5",
253468428,-1,
26074687,1,
261891266,1,?
263748908,-1,
266422722,-1,
268965942,-1,
272460142,"0,5",
273279047,1,
280584952,-1,
283010353,-1,
289222741,-1,
294728416,-1,
295534111,"0,5",
296169801,-1,
1635174372,Действие учётной записи приостановлено,
200117076,-1,
943393806,-1,
2253568550,Действие учётной записи приостановлено,
605736838,-1,
2267231835,-1,
2301224094,Действие учётной записи приостановлено,
2259535570,-1,
2299401571,Действие учётной записи приостановлено,
1899410448,-1,
314577210,-1,
315402215,"0,5",
316126024,-1,
316927625,-1,
319655144,-1,
322420851,1,
323391904,"0,5",
325872973,"0,5",
326107830,-1,
329604622,1,
331722932,-1,
334171575,-1,
337054315,"К сожалению, такой страницы нет!",
337670989,"0,5",
340182173,"0,5",
341623074,1,
344768825,1,
345455895,"0,5",
345738591,-1,
34594532,"0,5",
346431375,"0,5",
347842730,-1,
358251286,-1,
358669611,1,
358801452,-1,
359627069,"0,5",
36336371,-1,
365891032,"0,5",
367822615,-1,
367925448,-1,
368125204,-1,
368825706,-1,
374967246,-1,
378089532,-1,
379648130,-1,
379862525,-1,
381674402,"0,5",
382771364,"К сожалению, такой страницы нет!",
387032898,1,?
388322821,-1,
391198522,-1,
39224663,"0,5",
393234738,"0,5",
399187399,-1,
403529644,-1,
405523011,-1,
407123741,"0,5",
408723484,-1,
414019941,-1,
414200291,"0,5",
414632511,Действие учётной записи приостановлено,
419391877,Действие учётной записи приостановлено,
420636371,"0,5",?
420812094,Действие учётной записи приостановлено,
424496371,Действие учётной записи приостановлено,
426953466,1,
427687838,Действие учётной записи приостановлено,
428387110,-1,
428747623,-1,
429332974,-1,
430589984,"0,5",
431683471,1,
432741889,-1,
432960271,Действие учётной записи приостановлено,
435977355,Действие учётной записи приостановлено,
440082450,Действие учётной записи приостановлено,
443562137,-1,
446022848,1,
447063440,-1,
447950368,1,
448168369,-1,
450238251,1,
452942814,"К сожалению, такой страницы нет!",
453273125,"0,5",
456031487,1,?
457326148,-1,
462978563,-1,
468277628,-1,
470490066,"0,5",
471773986,"0,5",
473071817,-1,
474823162,-1,
477509169,-1,
477686048,-1,
478080007,-1,
478181180,"0,5",
47975014,1,
480688597,"0,5",
481035035,"0,5",
483649792,-1,
487229350,-1,
491331269,1,
493249372,"0,5",
497940072,-1,
498728564,1,
512141798,"0,5",
512814104,1,
513573852,-1,
513578906,-1,
515671158,1,
518914231,"0,5",
521981273,"К сожалению, такой страницы нет!",
522088566,-1,
523005232,-1,
523327356,-1,
524437452,1,
526332630,1,
532192273,-1,
541473124,"0,5",
542552797,-1,
543236222,-1,
543473628,"0,5",
544211247,-1,
544983275,1,
546199822,-1,
549060018,-1,
549101444,-1,
549509104,"0,5",
554134379,-1,
554553158,"0,5",
555078265,-1,
559107403,-1,
1628508654,Действие учётной записи приостановлено,
1447716265,-1,
2271068024,-1,
212548323,-1,
1636145113,Действие учётной записи приостановлено,
563899582,-1,
2163427880,-1,
83318266,-1,
2285090081,-1,
182387771,1,
1124798809,-1,
383399771,-1,
2279238407,-1,
57763422,-1,
2295660694,-1,
2162124180,-1,
185598543,-1,
2301419340,-1,
1469199997,-1,
2294099722,Действие учётной записи приостановлено,
2293898631,Действие учётной записи приостановлено,
358617028,-1,
300078523,-1,
436034307,-1,
52333119,-1,
449126814,Действие учётной записи приостановлено,
559632531,1,
561218367,-1,
561487041,-1,
561942177,Действие учётной записи приостановлено,
563052061,-1,
564432908,Действие учётной записи приостановлено,
564513867,Действие учётной записи приостановлено,
564559915,-1,
565824201,-1,
566226693,-1,
566886304,-1,
570707466,-1,
571072656,-1,
572629846,-1,
575880797,-1,
576438519,Действие учётной записи приостановлено,
576520834,-1,
577350195,"0,5",
577700210,-1,
578265456,-1,
583680640,-1,
58469274,-1,
584730668,-1,
587230405,-1,
587402715,1,??
590965998,-1,
593541936,-1,
595360074,-1,
597397198,"0,5",
598289656,"0,5",
60143196,-1,
604282027,-1,
605383293,"0,5",
608499670,-1,
609898130,-1,
611222860,-1,
613214709,1,
613649763,-1,
615422017,1,
617518736,-1,
619180436,"0,5",
62287736,-1,
626578818,-1,
631162806,1,
632096324,-1,
632802476,-1,
634335569,-1,
634725546,1,
64686554,-1,
65438964,Твиты @eugraf защищены,
69594490,"0,5",
71241801,-1,
730894430,"0,5",
734409469,"0,5",
735380953,"0,5",
749534539,-1,
767876101,-1,
778990105,1,
782848608,-1,
797960534,-1,
79977594,1,
813252246,1,
834937213,-1,
843475711,-1,
84555883,"0,5",
856656626,-1,
864217531,"0,5",
867748274,"0,5",
875832373,"0,5",
87839352,"0,5",
884306588,"К сожалению, такой страницы нет!",
888601885,"0,5",
899509782,-1,
900851581,-1,
901462886,-1,
921451951,-1,
922783830,-1,
929503597,-1,
931651770,"0,5",
